Capítulo3 Conceitos iniciais | Ciência de Dados na Saúde com R
…
indivíduos imputados mais de uma vez na planilha de dados de maneira errada;

identificar casos missings e avaliar se a observação está ausente de maneira correta ou não;

identificar as categorias de variáveis qualitativas.

Para exemplificar o que for discutido, consideramos os dados fictícios de \(n=104\) gestações gemelares, apresentado no Capítulo 2. O dicionário contém a explicação das variáveis, a identificação dos valores ausentes de cada variável e o rótulo das categorias de variáveis qualitativas. Uma boa prática na tabulação dos dados é manter o dicionário junto com a base de dados. Se a tabulação for realizada no Excel, por exemplo, manter o dicionário em uma outra aba.

3.6.1 Importação dos dados

library(readxl)
dados <- read_excel(path = "dataset/dados_gemelares.xlsx")
dados

## # A tibble: 108 x 21
##       ID Grupo CORION `Data aval`         `Data nascimento`   `COR BRANCO`
##    <dbl> <dbl> <chr>  <dttm>              <dttm>                     <dbl>
##  1     1     2 Di     2017-04-23 00:00:00 1988-04-30 00:00:00            1
##  2     2     1 Mono   2016-03-21 00:00:00 1982-03-30 00:00:00            1
##  3     2     1 Mono   2016-03-21 00:00:00 1982-03-30 00:00:00            1
##  4     3     1 Di     2016-02-17 00:00:00 1991-02-23 00:00:00            2
##  5     5     2 Di     2017-04-23 00:00:00 1988-04-30 00:00:00            2
##  6     6     1 Di     2016-03-21 00:00:00 1989-03-28 00:00:00            2
##  7     7     2 Di     2016-02-17 00:00:00 1985-02-24 00:00:00            2
##  8     8     1 Di     2017-12-14 00:00:00 1988-12-21 00:00:00            1
##  9     9     1 Di     2017-04-23 00:00:00 1980-05-02 00:00:00            3
## 10    10     2 Di     2016-03-21 00:00:00 1984-03-29 00:00:00            1
## # ... with 98 more rows, and 15 more variables: `Peso Pré` <dbl>, ALT <dbl>,
## #   Gesta <dbl>, Para <dbl>, Aborto <dbl>, IND_AP <dbl>, Tabagismo <dbl>,
## #   Alcool <dbl>, Drogas <dbl>, IG_Aval <dbl>, MedidaColo <dbl>,
## #   Num_contra_CTG <dbl>, `IGP semana` <dbl>, `IGP dia` <dbl>, oi <lgl>
…
##  [1] "id"              "grupo"           "corion"          "data_aval"      
##  [5] "data_nascimento" "cor_branco"      "peso_pre"        "alt"            
##  [9] "gesta"           "para"            "aborto"          "ind_ap"         
## [13] "tabagismo"       "alcool"          "drogas"          "ig_aval"        
## [17] "medida_colo"     "num_contra_ctg"  "igp_semana"      "igp_dia"        
## [21] "oi"

Veja que ele deixou todos os nomes minúsculos, substituindo o espaço por "_" e tirando acentos. Isso ajuda a evitar problemas futuros em algumas análises que não lidam muito bem com acentos e espaços nos nomes das variáveis.

Outro problema comum é a presença de linhas e colunas vazias. Na base de dados em questão, não há linhas em branco, como pode ser visto na saída abaixo.

janitor::remove_empty(dados,"rows")

## # A tibble: 108 x 21
##       id grupo corion data_aval           data_nascimento     cor_branco
##    <dbl> <dbl> <chr>  <dttm>              <dttm>                   <dbl>
##  1     1     2 Di     2017-04-23 00:00:00 1988-04-30 00:00:00          1
##  2     2     1 Mono   2016-03-21 00:00:00 1982-03-30 00:00:00          1
##  3     2     1 Mono   2016-03-21 00:00:00 1982-03-30 00:00:00          1
##  4     3     1 Di     2016-02-17 00:00:00 1991-02-23 00:00:00          2
##  5     5     2 Di     2017-04-23 00:00:00 1988-04-30 00:00:00          2
##  6     6     1 Di     2016-03-21 00:00:00 1989-03-28 00:00:00          2
##  7     7     2 Di     2016-02-17 00:00:00 1985-02-24 00:00:00          2
##  8     8     1 Di     2017-12-14 00:00:00 1988-12-21 00:00:00          1
##  9     9     1 Di     2017-04-23 00:00:00 1980-05-02 00:00:00          3
## 10    10     2 Di     2016-03-21 00:00:00 1984-03-29 00:00:00          1
## # ... with 98 more rows, and 15 more variables: peso_pre <dbl>, alt <dbl>,
## #   gesta <dbl>, para <dbl>, aborto <dbl>, ind_ap <dbl>, tabagismo <dbl>,
## #   alcool <dbl>, drogas <dbl>, ig_aval <dbl>, medida_colo <dbl>,
## #   num_contra_ctg <dbl>, igp_semana <dbl>, igp_dia <dbl>, oi <lgl>

Propositalmente, inclui a coluna “oi” vazia para podermos eliminá-la com o comando abaixo:

dados <- janitor::remove_empty(dados,"cols") #limpando colunas vazias
dados

## # A tibble: 108 x 20
##       id grupo corion data_aval           data_nascimento     cor_branco
##    <dbl> <dbl> <chr>  <dttm>              <dttm>                   <dbl>
##  1     1     2 Di     2017-04-23 00:00:00 1988-04-30 00:00:00          1
##  2     2     1 Mono   2016-03-21 00:00:00 1982-03-30 00:00:00          1
##  3     2     1 Mono   2016-03-21 00:00:00 1982-03-30 00:00:00          1
##  4     3     1 Di     2016-02-17 00:00:00 1991-02-23 00:00:00          2
##  5     5     2 Di     2017-04-23 00:00:00 1988-04-30 00:00:00          2
##  6     6     1 Di     2016-03-21 00:00:00 1989-03-28 00:00:00          2
##  7     7     2 Di     2016-02-17 00:00:00 1985-02-24 00:00:00          2
##  8     8     1 Di     2017-12-14 00:00:00 1988-12-21 00:00:00          1
##  9     9     1 Di     2017-04-23 00:00:00 1980-05-02 00:00:00          3
## 10    10     2 Di     2016-03-21 00:00:00 1984-03-29 00:00:00          1
## # ... with 98 more rows, and 14 more variables: peso_pre <dbl>, alt <dbl>,
## #   gesta <dbl>, para <dbl>, aborto <dbl>, ind_ap <dbl>, tabagismo <dbl>,
## #   alcool <dbl>, drogas <dbl>, ig_aval <dbl>, medida_colo <dbl>,
## #   num_contra_ctg <dbl>, igp_semana <dbl>, igp_dia <dbl>
…
No exemplo, note que os ID’s = 2, 11, 17 e 23 aparecem duas vezes cada, o que não está correto para essa aplicação.
Para eliminar linhas duplicadas identificadas, usamos a função distinct do pacote dplyr.

library(dplyr)

dados <- dplyr::distinct(dados,id, .keep_all = TRUE)
dados

## # A tibble: 104 x 20
##       id grupo corion data_aval           data_nascimento     cor_branco
##    <dbl> <dbl> <chr>  <dttm>              <dttm>                   <dbl>
##  1     1     2 Di     2017-04-23 00:00:00 1988-04-30 00:00:00          1
##  2     2     1 Mono   2016-03-21 00:00:00 1982-03-30 00:00:00          1
##  3     3     1 Di     2016-02-17 00:00:00 1991-02-23 00:00:00          2
##  4     5     2 Di     2017-04-23 00:00:00 1988-04-30 00:00:00          2
##  5     6     1 Di     2016-03-21 00:00:00 1989-03-28 00:00:00          2
##  6     7     2 Di     2016-02-17 00:00:00 1985-02-24 00:00:00          2
##  7     8     1 Di     2017-12-14 00:00:00 1988-12-21 00:00:00          1
##  8     9     1 Di     2017-04-23 00:00:00 1980-05-02 00:00:00          3
##  9    10     2 Di     2016-03-21 00:00:00 1984-03-29 00:00:00          1
## 10    11     2 Di     2016-02-17 00:00:00 1981-02-25 00:00:00          1
## # ... with 94 more rows, and 14 more variables: peso_pre <dbl>, alt <dbl>,
## #   gesta <dbl>, para <dbl>, aborto <dbl>, ind_ap <dbl>, tabagismo <dbl>,
## #   alcool <dbl>, drogas <dbl>, ig_aval <dbl>, medida_colo <dbl>,
## #   num_contra_ctg <dbl>, igp_semana <dbl>, igp_dia <dbl>
…
